^C:\CSCI_420\HOMEWORK2\HW2-STARTERCODE\ASSIGN1_COREOPENGL_STARTERCODE\EXTERNAL\IMAGEIO\IMAGEIO.CPP|C:\CSCI_420\HOMEWORK2\HW2-STARTERCODE\ASSIGN1_COREOPENGL_STARTERCODE\HW1-STARTERCODE\HW1.CPP|C:\CSCI_420\HOMEWORK2\HW2-STARTERCODE\ASSIGN1_COREOPENGL_STARTERCODE\OPENGLHELPER-STARTERCODE\BASICPIPELINEPROGRAM.CPP|C:\CSCI_420\HOMEWORK2\HW2-STARTERCODE\ASSIGN1_COREOPENGL_STARTERCODE\OPENGLHELPER-STARTERCODE\OPENGLMATRIX.CPP|C:\CSCI_420\HOMEWORK2\HW2-STARTERCODE\ASSIGN1_COREOPENGL_STARTERCODE\OPENGLHELPER-STARTERCODE\PIPELINEPROGRAM.CPP
C:\CSCI_420\HOMEWORK2\HW2-STARTERCODE\ASSIGN1_COREOPENGL_STARTERCODE\HW1-STARTERCODE\DEBUG\VC120.PDB
C:\CSCI_420\HOMEWORK2\HW2-STARTERCODE\ASSIGN1_COREOPENGL_STARTERCODE\HW1-STARTERCODE\DEBUG\VC120.IDB
C:\CSCI_420\HOMEWORK2\HW2-STARTERCODE\ASSIGN1_COREOPENGL_STARTERCODE\HW1-STARTERCODE\DEBUG\IMAGEIO.OBJ
C:\CSCI_420\HOMEWORK2\HW2-STARTERCODE\ASSIGN1_COREOPENGL_STARTERCODE\HW1-STARTERCODE\DEBUG\BASICPIPELINEPROGRAM.OBJ
C:\CSCI_420\HOMEWORK2\HW2-STARTERCODE\ASSIGN1_COREOPENGL_STARTERCODE\HW1-STARTERCODE\DEBUG\OPENGLMATRIX.OBJ
C:\CSCI_420\HOMEWORK2\HW2-STARTERCODE\ASSIGN1_COREOPENGL_STARTERCODE\HW1-STARTERCODE\DEBUG\PIPELINEPROGRAM.OBJ
^C:\CSCI_420\HOMEWORK2\HW2-STARTERCODE\ASSIGN1_COREOPENGL_STARTERCODE\EXTERNAL\IMAGEIO\IMAGEIO.CPP
C:\CSCI_420\HOMEWORK2\HW2-STARTERCODE\ASSIGN1_COREOPENGL_STARTERCODE\HW1-STARTERCODE\DEBUG\VC120.PDB
^C:\CSCI_420\HOMEWORK2\HW2-STARTERCODE\ASSIGN1_COREOPENGL_STARTERCODE\OPENGLHELPER-STARTERCODE\BASICPIPELINEPROGRAM.CPP
C:\CSCI_420\HOMEWORK2\HW2-STARTERCODE\ASSIGN1_COREOPENGL_STARTERCODE\HW1-STARTERCODE\DEBUG\VC120.PDB
^C:\CSCI_420\HOMEWORK2\HW2-STARTERCODE\ASSIGN1_COREOPENGL_STARTERCODE\OPENGLHELPER-STARTERCODE\OPENGLMATRIX.CPP
C:\CSCI_420\HOMEWORK2\HW2-STARTERCODE\ASSIGN1_COREOPENGL_STARTERCODE\HW1-STARTERCODE\DEBUG\VC120.PDB
^C:\CSCI_420\HOMEWORK2\HW2-STARTERCODE\ASSIGN1_COREOPENGL_STARTERCODE\OPENGLHELPER-STARTERCODE\PIPELINEPROGRAM.CPP
C:\CSCI_420\HOMEWORK2\HW2-STARTERCODE\ASSIGN1_COREOPENGL_STARTERCODE\HW1-STARTERCODE\DEBUG\VC120.PDB
^C:\CSCI_420\HOMEWORK2\HW2-STARTERCODE\ASSIGN1_COREOPENGL_STARTERCODE\HW1-STARTERCODE\HW1.CPP
C:\CSCI_420\HOMEWORK2\HW2-STARTERCODE\ASSIGN1_COREOPENGL_STARTERCODE\HW1-STARTERCODE\DEBUG\VC120.PDB
C:\CSCI_420\HOMEWORK2\HW2-STARTERCODE\ASSIGN1_COREOPENGL_STARTERCODE\HW1-STARTERCODE\DEBUG\VC120.IDB
C:\CSCI_420\HOMEWORK2\HW2-STARTERCODE\ASSIGN1_COREOPENGL_STARTERCODE\HW1-STARTERCODE\DEBUG\HW1.OBJ
